VCDs/trial.vcd
$date
	Tue Apr 13 01:50:29 2021
$end
$version
	Icarus Verilog
$end
$timescale
	1s
$end
$scope module count_up $end
$var reg 4 ! a [3:0] $end
$var reg 1 " clk $end
$upscope $end
$enddefinitions $end
#0
$dumpvars
1"
b0 !
$end
#1
0"
#2
b1 !
1"
#3
0"
#4
b10 !
1"
#5
0"
#6
b11 !
1"
#7
0"
#8
b100 !
1"
#9
0"
#10
b101 !
1"
#11
0"
#12
b110 !
1"
#13
0"
#14
b111 !
1"
#15
0"
#16
b1000 !
1"
#17
0"
#18
b1001 !
1"
#19
0"
#20
b1010 !
1"
#21
0"
#22
b1011 !
1"
#23
0"
#24
b1100 !
1"
#25
0"
#26
b1101 !
1"
#27
0"
#28
b1110 !
1"
#29
0"
#30
b1111 !
1"
#31
0"
#32
b0 !
1"
